{
	"views":
	[
		{
			"type": "registered",
			"registeredIndex": 0,
			"controlledActor": 0
		}
	],
	"actors":
	[
		{
			"name": "Body 1",
			"extend": "Suttung",
			"components":
			{
				"Transform":
				{
					"position": {"x": 0.0, "y": 4.0}
				},
				"Physics":
				{
					"linearVelocity": {"x": 5.0, "y": 0.0},
					"angularVelocity": -1.25
				},
				"Light":
				{
					"lights":
					{
						"main":
						{
							"color": {"r": 1.0, "g": 0.2, "b": 0.2}
						}
					}
				}
			}
		},
		{
			"name": "Body 2",
			"extend": "Box",
			"components":
			{
				"Transform":
				{
					"position": {"x": -4.0, "y": 0.0}
				},
				"Physics":
				{
					"linearVelocity": {"x": 0.0, "y": 5.0},
					"angularVelocity": 4.0
				}
			}
		},
		{
			"name": "Body 3",
			"extend": "Suttung",
			"components":
			{
				"Transform":
				{
					"position": {"x": 0.0, "y": -4.0},
					"rotation": 3.1415
				},
				"Physics":
				{
					"linearVelocity": {"x": -5.0, "y": 0.0},
					"angularVelocity": -1.25
				},
				"Light":
				{
					"lights":
					{
						"main":
						{
							"color": {"r": 0.2, "g": 0.2, "b": 1.0}
						}
					}
				}
			}
		},
		{
			"name": "Body 4",
			"extend": "Box",
			"components":
			{
				"Transform":
				{
					"position": {"x": 4.0, "y": 0.0}
				},
				"Physics":
				{
					"linearVelocity": {"x": 0.0, "y": -5.0},
					"angularVelocity": 4.0
				}
			}
		},
		{
			"name": "SpotLight Left",
			"extend": "Spotlight",
			"components":
			{
				"Transform":
				{
					"position": {"x": -7.0, "y": -4.0},
					"rotation": 0.6
				},
				"Light":
				{
					"lights":
					{
						"main":
						{
							"color": {"r": 0.2, "g": 1.0, "b": 0.2}
						}
					}
				}
			}
		},
		{
			"name": "SpotLight Right",
			"extend": "Spotlight",
			"components":
			{
				"Transform":
				{
					"position": {"x": 7.0, "y": -3.0},
					"rotation": 2.7
				},
				"Light":
				{
					"lights":
					{
						"main":
						{
							"color": {"r": 1.0, "g": 1.0, "b": 0.2}
						}
					}
				}
			}
		},
		{
			"name": "Nox Engine",
			"extend": "NoxEngine",
			"components":
			{
				"Transform":
				{
					"position": {"x": 0.0, "y": 0.0}
				}
			}
		},
		{
			"name": "Background Planet",
			"extend": "Planet",
			"components":
			{
				"Transform":
				{
					"position": {"x": 0.0, "y": 0.0}
				}
			}
		}
	]
}
