{"frames": [

{
	"filename": "noxEngineLogo.png",
	"frame": {"x":756,"y":502,"w":500,"h":318},
	"rotated": false,
	"trimmed": true,
	"spriteSourceSize": {"x":0,"y":0,"w":500,"h":318},
	"sourceSize": {"w":500,"h":322}
},
{
	"filename": "oldFaithful.png",
	"frame": {"x":484,"y":926,"w":72,"h":72},
	"rotated": false,
	"trimmed": false,
	"spriteSourceSize": {"x":0,"y":0,"w":72,"h":72},
	"sourceSize": {"w":72,"h":72}
},
{
	"filename": "suttungLogo.png",
	"frame": {"x":484,"y":502,"w":270,"h":422},
	"rotated": false,
	"trimmed": false,
	"spriteSourceSize": {"x":0,"y":0,"w":270,"h":422},
	"sourceSize": {"w":270,"h":422}
},
{
	"filename": "waterPlanet.png",
	"frame": {"x":2,"y":502,"w":480,"h":504},
	"rotated": false,
	"trimmed": true,
	"spriteSourceSize": {"x":20,"y":8,"w":480,"h":504},
	"sourceSize": {"w":512,"h":512}
},
{
	"filename":"chesterfield.png",
	"frame":{"x":0,"y":0,"w":500,"h":500},
	"rotated":false,
	"trimmed":false,
	"spriteSourceSize":{"x":0,"y":0,"w":500,"h":500},
	"sourceSize":{"w":500,"h":500}
},
{
	"filename":"cross.png",
	"frame":{"x":500,"y":0,"w":500,"h":500},
	"rotated":false,
	"trimmed":false,
	"spriteSourceSize":{"x":0,"y":0,"w":500,"h":500},
	"sourceSize":{"w":500,"h":500}
}],
"meta": {
	"app": "http://www.codeandweb.com/texturepacker ",
	"version": "1.0",
	"image": "testTextureAtlas.png",
	"format": "RGBA8888",
	"size": {"w":1258,"h":1008},
	"scale": "1",
	"smartupdate": "$TexturePacker:SmartUpdate:dee381702dee4492919d6b74fd75a5d8:211722ad4e81a7193cc4fbb2df2a54f8:b955f6a668d698bb54430b84d6aa3447$"
}
}
